{
	"additionalNodes": [],
	"additionalParameters": {
		"root": {
			"height": 88,
			"width": 180
		}
	},
	"inputs": [],
	"outputs": [],
	"properties": {
		"8NOSEbcbQijOhCPL4Nhx3Qz411wG1ACB": {
			"height": 60,
			"title": "sequence",
			"width": 143,
			"x": 934,
			"y": 281
		},
		"DiAxHk3NPh3CMtl30mF8NgYAXoeg0s7q": {
			"height": 99,
			"title": "moveInWindDir",
			"width": 476,
			"x": 1130,
			"y": 209
		},
		"DsGZDTkoATrkVuFguRKpVOrxgKBpISKD": {
			"height": 99,
			"title": "moveInWindDir",
			"width": 476,
			"x": 1131,
			"y": 328
		},
		"HmwRber6R8MEj4DtzpaSLqSxOXbm6Tzx": {
			"height": 60,
			"title": "repeat",
			"width": 131,
			"x": 739,
			"y": 5
		},
		"ZezrCPXTW5B9QeMbHYugl6C47ddAZO6X": {
			"height": 54,
			"title": "success - notImplemented",
			"width": 248,
			"x": 470,
			"y": -98
		},
		"bHfPAEdxeiGfGKz1upZ46jSM9F9vTmAV": {
			"height": 94,
			"title": "getWindSpeed",
			"width": 331,
			"x": 1125,
			"y": 4
		},
		"fTEVlVjqzkm3De2DTWZUEsZSeVtV66wm": {
			"height": 70,
			"title": "Parallel - commander ",
			"width": 221,
			"x": 485,
			"y": 76
		},
		"gNiUhw1qAkNRfSgNpBkqf7ZJzjkXtRKG": {
			"height": 60,
			"title": "sequence",
			"width": 143,
			"x": 896,
			"y": 6
		},
		"lUww1vdIibNY2wbWQ4A4kh3i5T911dNN": {
			"height": 60,
			"title": "repeat",
			"width": 131,
			"x": 756,
			"y": 290
		},
		"qlNYHF4xYOjZieTJsW3EzWpHM4NvfuN1": {
			"height": 92,
			"title": "storeWindCoeff",
			"width": 336,
			"x": 1127,
			"y": 107
		},
		"vZ8keDLJ5LsTiNcIZg0KlFaoFZ1TYxwI": {
			"height": 70,
			"title": "roleSplit",
			"width": 202,
			"x": 208,
			"y": 5
		}
	},
	"roles": [ {
		"categories": [],
		"name": "default"
	}, {
		"categories": [ "nota_krejcji.commander" ],
		"name": "commander"
	} ],
	"root": {
		"children": [ {
			"children": [],
			"id": "ZezrCPXTW5B9QeMbHYugl6C47ddAZO6X",
			"nodeType": "success",
			"parameters": []
		}, {
			"children": [ {
				"children": [ {
					"children": [ {
						"children": [],
						"id": "bHfPAEdxeiGfGKz1upZ46jSM9F9vTmAV",
						"nodeType": "luaCommand",
						"parameters": [ {
							"name": "var",
							"value": "wind"
						}, {
							"name": "value",
							"value": "map.Wind()"
						}, {
							"name": "scriptName",
							"value": "store"
						} ],
						"scriptName": "store"
					}, {
						"children": [],
						"id": "qlNYHF4xYOjZieTJsW3EzWpHM4NvfuN1",
						"nodeType": "luaCommand",
						"parameters": [ {
							"name": "var",
							"value": "windCoeff"
						}, {
							"name": "value",
							"value": "250"
						}, {
							"name": "scriptName",
							"value": "store"
						} ],
						"scriptName": "store"
					} ],
					"id": "gNiUhw1qAkNRfSgNpBkqf7ZJzjkXtRKG",
					"nodeType": "sequence",
					"parameters": []
				} ],
				"id": "HmwRber6R8MEj4DtzpaSLqSxOXbm6Tzx",
				"nodeType": "repeat",
				"parameters": []
			}, {
				"children": [ {
					"children": [ {
						"children": [],
						"id": "DiAxHk3NPh3CMtl30mF8NgYAXoeg0s7q",
						"nodeType": "luaCommand",
						"parameters": [ {
							"name": "dist",
							"value": "{x = windCoeff* wind.normDirX, z =windCoeff*wind.normDirZ}"
						}, {
							"name": "fight",
							"value": "false"
						}, {
							"name": "scriptName",
							"value": "Common.relativeMove"
						} ],
						"scriptName": "Common.relativeMove"
					}, {
						"children": [],
						"id": "DsGZDTkoATrkVuFguRKpVOrxgKBpISKD",
						"nodeType": "luaCommand",
						"parameters": [ {
							"name": "dist",
							"value": "{x = windCoeff* wind.normDirX, z =windCoeff*wind.normDirZ}"
						}, {
							"name": "fight",
							"value": "false"
						}, {
							"name": "scriptName",
							"value": "Common.relativeMove"
						} ],
						"scriptName": "Common.relativeMove"
					} ],
					"id": "8NOSEbcbQijOhCPL4Nhx3Qz411wG1ACB",
					"nodeType": "sequence",
					"parameters": []
				} ],
				"id": "lUww1vdIibNY2wbWQ4A4kh3i5T911dNN",
				"nodeType": "repeat",
				"parameters": []
			} ],
			"id": "fTEVlVjqzkm3De2DTWZUEsZSeVtV66wm",
			"nodeType": "parallel",
			"parameters": [ {
				"name": "mode",
				"value": "all-success"
			} ]
		} ],
		"id": "vZ8keDLJ5LsTiNcIZg0KlFaoFZ1TYxwI",
		"nodeType": "roleSplit",
		"parameters": [ {
			"name": "mode",
			"value": "all-success"
		} ]
	}
}